﻿claim_fabricator = {

	general_opinion = -10
	vassal_opinion = -10
	liege_opinion = -10
	fellow_vassal_opinion = -10
	fame = yes
	
	ruler_designer_cost = -20
	desc = {
		first_valid = {
			triggered_desc = {
				trigger = {
					NOT = { exists = this }
				}
				desc = trait_claim_fabricator_desc
			}
			desc = trait_claim_fabricator_character_desc
		}
	}
}