﻿take_stewardship_of_the_sacred_river_effect = {
	give_nickname = nick_the_ladylord_of_the_ganges
	add_piety_level = 1
	add_character_modifier = {
		modifier = ruler_of_the_ganges_modifier
	}
	if = {
		limit = {
			exists = global_var:ruler_of_ganges
		}
		if = {
			limit = {
				NOT = { faith = global_var:ruler_of_ganges.faith}
			}
			faith = {
				save_scope_as = ganges_faith
				change_fervor = {
					value = major_fervor_gain
					desc = fervor_gain_stewardship_of_sacred_rivers
				}
			}
		}
		if = {
			limit = {
				global_var:ruler_of_ganges = {
					is_alive = yes
				}
			}
			show_as_tooltip = {
				global_var:ruler_of_ganges = {
					add_opinion = {
						target = root
						modifier = humbled_opinion
						opinion = -40	
					}
				}
			}
		}
	}
	hidden_effect = {
		set_global_variable = {
			name = ruler_of_ganges
			value = root
		}
	}
}


establish_bactrian_supremacy_effect = {
	#Create the title and make it primary
	create_title_and_vassal_change = {
		type = created
		save_scope_as = title_change
		add_claim_on_loss = no
	}
	title:e_bactria = {
		change_title_holder = {
			holder = root
			change = scope:title_change
		}
	}
	resolve_title_and_vassal_change = scope:title_change
	set_primary_title_to = title:e_bactria

	title:c_balkh = {
		add_county_modifier = {
			modifier = bactria_royal_tolls_modifier
		}
	}

	hidden_effect = {
		every_held_title = {
			limit = {
				tier = tier_empire
				NOT = { this = title:e_bactria }
			}
			every_in_de_jure_hierarchy = {
				continue = {
					tier >= tier_kingdom
				}
				limit = {
					tier = tier_kingdom
					OR = {
						holder = root
						holder = { target_is_liege_or_above = root }
					}
					NOT = { is_in_list = new_de_jure_kingdoms }
				}
				add_to_list = new_de_jure_kingdoms
			}
			add_to_list = empire_for_destruction
		}

		every_held_title = {
			limit = {
				tier = tier_kingdom
				NOT = { is_in_list = new_de_jure_kingdoms }
			}
			add_to_list = new_de_jure_kingdoms
		}

		title:k_kabulistan = {
			if = {
				limit = {
					NOT = { is_in_list = new_de_jure_kingdoms }
				}
				add_to_list = new_de_jure_kingdoms
			}
		}
		title:k_khorasan = {
			if = {
				limit = {
					NOT = { is_in_list = new_de_jure_kingdoms }
				}
				add_to_list = new_de_jure_kingdoms
			}
		}
		title:k_transoxiana = {
			if = {
				limit = {
					NOT = { is_in_list = new_de_jure_kingdoms }
				}
				add_to_list = new_de_jure_kingdoms
			}
		}
		every_in_list = {
			list = new_de_jure_kingdoms
			limit = {
				trigger_if = {
					limit = {
						exists = this
						root = { is_ai = yes }
						exists = holder
					}
					NOR = {
						holder.top_liege = { is_ai = no }
						holder = { is_ai = no }
					}
				}
			}
			set_de_jure_liege_title = title:e_bactria
		}
		every_in_list = {
			list = empire_for_destruction
			limit = {
				NOT = { this = title:e_bactria } #Just a little safeguarding
			}
			root = {
				destroy_title = prev
			}
		}

		#Notifications for characters who hold land that is now claimed
		title:e_bactria = {
			every_in_de_jure_hierarchy = {
				continue = {
					tier >= tier_duchy
				}
				limit = {
					exists = holder
					holder = {
						NOR = {
							this = root
							target_is_liege_or_above = root
						}
					}
				}
				holder = {
					if = {
						limit = {
							NOT = { is_in_list = notification_sent }
						}
						add_to_temporary_list = notification_sent
						trigger_event = central_asia.0013
					}
				}
			}
		}

		every_vassal = {
			limit = {
				NOT = {
					is_in_list = notification_sent
				}
			}
			trigger_event = central_asia.0012
		}
		}
}



create_custom_kingdom_effect = {
	custom_tooltip = create_new_kingdom
	show_as_tooltip = {
		every_held_title = {
			custom = create_title_every_held_duchy
			limit = {
				tier = tier_duchy
			}
			custom_tooltip = create_custom_kingdom_de_jure_changes
		}
	}

	hidden_effect = {
		save_scope_as = founder
		primary_title = {
			save_scope_as = old_title
		}
		
		create_dynamic_title = {
			tier = kingdom
			name = NEW_CREATED_TITLE_NAME
		}
		create_title_and_vassal_change = {
			type = created
			save_scope_as = change
			add_claim_on_loss = no
		}
		
		scope:new_title = {
			change_title_holder = {
				holder = root
				change = scope:change
			}
		}
		
		resolve_title_and_vassal_change = scope:change

		#Check if all territory is from a single Empire, and if so, make Kingdom de jure of that Empire
		every_sub_realm_county = {
			if = {
				limit = {
					exists = empire
				}
				empire = {
					if = {
						limit = {
							NOT = {
								is_in_list = potential_empires
							}
						}
						add_to_list = potential_empires
					}
				}
			}
		}
		if = {
			limit = {
				any_in_list = {
					list = potential_empires
					count > 0
				}
			}
			ordered_in_list = {
				list = potential_empires
				order_by = {
					every_in_de_jure_hierarchy = {
						continue = {
							tier > tier_county
						}
						limit = {
							tier = tier_county
							holder.top_liege = root
						}
						add = 1
					}
				}
				position = 0
				save_scope_as = old_empire
			}
		}
		if = {
			limit = {
				exists = scope:old_empire
			}
			scope:new_title = {
				set_de_jure_liege_title = scope:old_empire
			}
		}
		
		every_held_title = {
			limit = {
				tier = tier_duchy
			}
			if = {
				limit = {
					#Check if you need to notify a player
					OR = {
						AND = {
							exists = kingdom
							kingdom = {
								exists = holder
								holder = {
									NOT = { this = root }
									is_ai = no
								}
							}
						}
						AND = {
							exists = empire
							empire = {
								exists = holder
								holder = {
									NOT = { this = root }
									is_ai = no
								}
							}
						}
					}
				}
				add_to_temporary_list = duchy_for_notification
				root = {
					save_temporary_scope_value_as = {
						name = send_notifications
						value = yes
					}
				}
			}
			set_de_jure_liege_title = scope:new_title
		}

		every_sub_realm_county = {
			limit = {
				exists = duchy
				NOT = { exists = duchy.holder }
				holder.top_liege = root
				duchy = {
					save_temporary_scope_as = test_duchy
				}
				holder.top_liege = {
					completely_controls = scope:test_duchy
				}
			}
			if = {
				limit = {
					NOT = {
						duchy = {
							is_in_list = additional_de_jure_duchies
						}
					}
				}
				duchy = {
					set_de_jure_liege_title = scope:new_title
					add_to_list = additional_de_jure_duchies
				}
			}
		}
		
		scope:new_title = {
			set_coa = scope:old_title
			set_color_from_title = scope:old_title
			set_capital_county = scope:old_title.title_capital_county
		}
		set_primary_title_to = scope:new_title
		
		trigger_event = major_decisions.1101
		
		every_player = {
			if = {
				limit = {
					top_liege = scope:founder
					NOT = { this = root }
				}
				trigger_event = major_decisions.1102
			}
			else_if = {
				limit = {
					exists = scope:send_notifications
					NOT = { this = root }
					NOT = { top_liege = scope:founder }
					any_held_title = {
						any_in_de_jure_hierarchy = {
							continue = {
								tier > tier_duchy
							}
							tier = tier_duchy
							is_in_list = duchy_for_notification
						}
					}
				}
				every_held_title = {
					every_in_de_jure_hierarchy = {
						continue = {
							tier > tier_duchy
						}
						limit = {
							tier = tier_duchy
							is_in_list = duchy_for_notification
						}
						add_to_list = notification_titles	
					}
				}			
				if = {
					limit = {
						any_in_list = {
							list = notification_titles
							count > 0
						}
					}
					trigger_event = major_decisions.1105
				}
			}
		}
	}
}

create_custom_empire_effect = {
	custom_tooltip = create_new_empire
	show_as_tooltip = {
		every_held_title = {
			custom = create_title_every_held_kingdom
			limit = {
				tier = tier_kingdom
			}
			custom_tooltip = create_custom_empire_de_jure_changes
		}
	}

	hidden_effect = {
		save_scope_as = founder
		primary_title = {
			save_scope_as = old_title
		}

		create_dynamic_title = {
			tier = empire
			name = NEW_CREATED_TITLE_NAME
		}
		create_title_and_vassal_change = {
			type = created
			save_scope_as = change
			add_claim_on_loss = no
		}

		scope:new_title = {
			change_title_holder = {
				holder = root
				change = scope:change
			}
		}

		resolve_title_and_vassal_change = scope:change

  		every_held_title = {
			limit = {
				tier = tier_kingdom
			}
			if = {
				limit = {
					#Check if you need to notify a player
					exists = empire
					empire = {
						exists = holder
						holder = {
							NOT = { this = root }
							is_ai = no
						}
					}
				}
				add_to_temporary_list = kingdoms_for_notification
				root = {
					save_temporary_scope_value_as = {
						name = send_notifications
						value = yes
					}
				}
			}
			set_de_jure_liege_title = scope:new_title
		}

		every_sub_realm_county = {
			limit = {
				exists = kingdom
#				NOT = { exists = kingdom.holder } #this is unnecessary, given that we check for completely_controls = scope:test_kingdom just a few lines of code later!! all this does is infuriate players considering you cannot usurp a kingdom title from someone holding _none of its de jure land whatsoever_ as long as they keep fighting as allies in an endless series of unimportant wars on the other side of the continent. so you as a player could choose between waiting years for the paradoxai to hopefully come to a moment of peace so you could actually usurp "their" kingdom title (whose land you completely own) to make it de jure part of your custom empire you are poised to create, or alternatively you can just create an empire that would not de jure include a kingdom you completely own and control. commenting this one line out fixes this with no apparent issue.
				holder.top_liege = root
				kingdom = {
					save_temporary_scope_as = test_kingdom
				}
				holder.top_liege = {
					completely_controls = scope:test_kingdom
				}
			}
			if = {
				limit = {
					NOT = {
						kingdom = {
							is_in_list = additional_de_jure_kingdoms
						}
					}
				}
				kingdom = {
					set_de_jure_liege_title = scope:new_title
					add_to_list = additional_de_jure_kingdoms
				}
			}
		}

		scope:new_title = {
			set_coa = scope:old_title
			set_color_from_title = scope:old_title
			set_capital_county = scope:old_title.title_capital_county
		}
		set_primary_title_to = scope:new_title

		trigger_event = major_decisions.1103

		every_player = {
			if = {
				limit = {
					top_liege = scope:founder
					NOT = { this = root }
				}
				trigger_event = major_decisions.1104
			}
			else_if = {
				#Notify any players who lose de jure territory
				limit = {
					exists = scope:send_notifications
					NOT = { this = root }
					NOT = { top_liege = scope:founder }
					any_held_title = {
						any_in_de_jure_hierarchy = {
							continue = {
								tier > tier_kingdom
							}
							tier = tier_kingdom
							is_in_list = kingdoms_for_notification
						}
					}
				}
				every_held_title = {
					every_in_de_jure_hierarchy = {
						continue = {
							tier > tier_kingdom
						}
						limit = {
							tier = tier_kingdom
							is_in_list = kingdoms_for_notification
						}
						add_to_list = notification_titles
					}
				}
				if = {
					limit = {
						any_in_list = {
							list = notification_titles
							count > 0
						}
					}
					trigger_event = major_decisions.1105
				}
			}
		}
	}	
}
